0 1 4 0 80b6e76643dc 000000000000 000000000000
1 5 3 0 d6f755337615 000000000000 000000000000
2 8 2 0 96d3ee574f69 000000000000 000000000000
3 10 1 0 96d3ee574f10 000000000000 000000000000
4 11 3 0 1336640d6ad9 96d3ee574f10 0f82cc34e7b2
5 14 3 0 1336640d6ad9 1336640d6ad9 0f82cc34e7b2
6 17 2 0 d7b4fdc3dcd8 1336640d6ad9 0f82cc34e7b2
